%YAML 1.1
%TAG !u! tag:unity3d.com,2011:
--- !u!21 &2100000
Material:
  serializedVersion: 6
  m_ObjectHideFlags: 0
  m_CorrespondingSourceObject: {fileID: 0}
  m_PrefabInstance: {fileID: 0}
  m_PrefabAsset: {fileID: 0}
  m_Name: m_Fire
  m_Shader: {fileID: 4800000, guid: bda9d3915516346e9ad598806ab75f89, type: 3}
  m_ShaderKeywords: ETC1_EXTERNAL_ALPHA
  m_LightmapFlags: 4
  m_EnableInstancingVariants: 0
  m_DoubleSidedGI: 0
  m_CustomRenderQueue: -1
  stringTagMap: {}
  disabledShaderPasses: []
  m_SavedProperties:
    serializedVersion: 3
    m_TexEnvs:
    - Texture2D_B24BCF5F:
        m_Texture: {fileID: 2800000, guid: 2462143a28d294dea905b3551bdf902c, type: 3}
        m_Scale: {x: 1, y: 1}
        m_Offset: {x: 0, y: 0}
    - _SampleTexture2D_CE32D450_Texture:
        m_Texture: {fileID: 0}
        m_Scale: {x: 1, y: 1}
        m_Offset: {x: 0, y: 0}
    - _Tex:
        m_Texture: {fileID: 2800000, guid: 2462143a28d294dea905b3551bdf902c, type: 3}
        m_Scale: {x: 1, y: 1}
        m_Offset: {x: 0, y: 0}
    m_Floats:
    - Vector1_962D6028: 0.4
    m_Colors:
    - Color_7A4631DD: {r: 0, g: 4.2158375, b: 16.188797, a: 0}
