%YAML 1.1
%TAG !u! tag:unity3d.com,2011:
--- !u!114 &11400000
MonoBehaviour:
  m_ObjectHideFlags: 0
  m_CorrespondingSourceObject: {fileID: 0}
  m_PrefabInstance: {fileID: 0}
  m_PrefabAsset: {fileID: 0}
  m_GameObject: {fileID: 0}
  m_Enabled: 1
  m_EditorHideFlags: 0
  m_Script: {fileID: 11500000, guid: f798d5519cb1540d3bedb50ce97ebe10, type: 3}
  m_Name: PoolEffects
  m_EditorClassIdentifier: 
  PoolItems:
  - Name: BombDissolve
    Prefab: {fileID: 873047734540043989, guid: 0fb98ea670df5499b9916ab3d0fb23e7, type: 3}
    PoolSize: 10
  - Name: Fire
    Prefab: {fileID: 6610661760296623736, guid: 045a42c01f5bf43889a6fe57a677e6b3,
      type: 3}
    PoolSize: 10
